[{"id":1,"first_name":"Kit","last_name":"Epinoy","email":"kepinoy0@slate.com","password":"g92vyFSYK"},
{"id":2,"first_name":"Bambie","last_name":"Mabley","email":"bmabley1@marriott.com","password":"cw1O9aUg"},
{"id":3,"first_name":"Cristin","last_name":"Black","email":"cblack2@mashable.com","password":"LVeCvk271C"},
{"id":4,"first_name":"Crista","last_name":"Pinshon","email":"cpinshon3@ocn.ne.jp","password":"xYcxYVeE"},
{"id":5,"first_name":"Hinda","last_name":"Winfield","email":"hwinfield4@paypal.com","password":"gXdShmJs"},
{"id":6,"first_name":"Kristopher","last_name":"Kener","email":"kkener5@webnode.com","password":"cQxDNn"},
{"id":7,"first_name":"Hedda","last_name":"Rawes","email":"hrawes6@whitehouse.gov","password":"MtSz2fM"},
{"id":8,"first_name":"Vivianna","last_name":"Olivella","email":"volivella7@tripod.com","password":"jdcmAmiJNLMy"},
{"id":9,"first_name":"Jaquelyn","last_name":"Baskerfield","email":"jbaskerfield8@naver.com","password":"UwXkiHQ3Jc"},
{"id":10,"first_name":"Udale","last_name":"Beades","email":"ubeades9@so-net.ne.jp","password":"GTTKpb9"}]